%YAML 1.1
%TAG !u! tag:unity3d.com,2011:
--- !u!74 &7400000
AnimationClip:
  m_ObjectHideFlags: 0
  m_PrefabParentObject: {fileID: 0}
  m_PrefabInternal: {fileID: 0}
  m_Name: Dead
  serializedVersion: 6
  m_Legacy: 0
  m_Compressed: 0
  m_UseHighQualityCurve: 1
  m_RotationCurves: []
  m_CompressedRotationCurves: []
  m_EulerCurves: []
  m_PositionCurves: []
  m_ScaleCurves: []
  m_FloatCurves: []
  m_PPtrCurves:
  - curve:
    - time: 0
      value: {fileID: 21300000, guid: ee52095995e6e7841b1658dfc45e18e0, type: 3}
    - time: 0.083333336
      value: {fileID: 21300000, guid: ed6778dbbe16a6042b2df75712802943, type: 3}
    - time: 0.16666667
      value: {fileID: 21300000, guid: 4419136d535fa324280184b6b9d758ca, type: 3}
    - time: 0.25
      value: {fileID: 21300000, guid: 7d8040ab59fab3e4ab1f0c174d9a7c11, type: 3}
    - time: 0.33333334
      value: {fileID: 21300000, guid: 5decb83778364294d8911f3b2802c100, type: 3}
    - time: 0.41666666
      value: {fileID: 21300000, guid: 1f2d93696484c214f9b8c87abbd9e80b, type: 3}
    - time: 0.5
      value: {fileID: 21300000, guid: 9df83305901887c4f88a927713ae677d, type: 3}
    - time: 0.5833333
      value: {fileID: 21300000, guid: 37adcc2ecc3b21448a26a0a477e69a11, type: 3}
    - time: 0.6666667
      value: {fileID: 21300000, guid: e54c596665300d84fb88557591abb6f4, type: 3}
    - time: 0.75
      value: {fileID: 21300000, guid: fac318d979f49f142b837cf0b7738f97, type: 3}
    - time: 0.8333333
      value: {fileID: 21300000, guid: e30239ace55c8844ea2564f086231104, type: 3}
    - time: 0.9166667
      value: {fileID: 21300000, guid: a108d9298638d684cac333cc089d1038, type: 3}
    attribute: m_Sprite
    path: 
    classID: 212
    script: {fileID: 0}
  m_SampleRate: 12
  m_WrapMode: 0
  m_Bounds:
    m_Center: {x: 0, y: 0, z: 0}
    m_Extent: {x: 0, y: 0, z: 0}
  m_ClipBindingConstant:
    genericBindings:
    - serializedVersion: 2
      path: 0
      attribute: 0
      script: {fileID: 0}
      typeID: 212
      customType: 23
      isPPtrCurve: 1
    pptrCurveMapping:
    - {fileID: 21300000, guid: ee52095995e6e7841b1658dfc45e18e0, type: 3}
    - {fileID: 21300000, guid: ed6778dbbe16a6042b2df75712802943, type: 3}
    - {fileID: 21300000, guid: 4419136d535fa324280184b6b9d758ca, type: 3}
    - {fileID: 21300000, guid: 7d8040ab59fab3e4ab1f0c174d9a7c11, type: 3}
    - {fileID: 21300000, guid: 5decb83778364294d8911f3b2802c100, type: 3}
    - {fileID: 21300000, guid: 1f2d93696484c214f9b8c87abbd9e80b, type: 3}
    - {fileID: 21300000, guid: 9df83305901887c4f88a927713ae677d, type: 3}
    - {fileID: 21300000, guid: 37adcc2ecc3b21448a26a0a477e69a11, type: 3}
    - {fileID: 21300000, guid: e54c596665300d84fb88557591abb6f4, type: 3}
    - {fileID: 21300000, guid: fac318d979f49f142b837cf0b7738f97, type: 3}
    - {fileID: 21300000, guid: e30239ace55c8844ea2564f086231104, type: 3}
    - {fileID: 21300000, guid: a108d9298638d684cac333cc089d1038, type: 3}
  m_AnimationClipSettings:
    serializedVersion: 2
    m_AdditiveReferencePoseClip: {fileID: 0}
    m_AdditiveReferencePoseTime: 0
    m_StartTime: 0
    m_StopTime: 1
    m_OrientationOffsetY: 0
    m_Level: 0
    m_CycleOffset: 0
    m_HasAdditiveReferencePose: 0
    m_LoopTime: 0
    m_LoopBlend: 0
    m_LoopBlendOrientation: 0
    m_LoopBlendPositionY: 0
    m_LoopBlendPositionXZ: 0
    m_KeepOriginalOrientation: 0
    m_KeepOriginalPositionY: 1
    m_KeepOriginalPositionXZ: 0
    m_HeightFromFeet: 0
    m_Mirror: 0
  m_EditorCurves: []
  m_EulerEditorCurves: []
  m_HasGenericRootTransform: 0
  m_HasMotionFloatCurves: 0
  m_GenerateMotionCurves: 0
  m_Events: []
